{
	"id": "b736f9a2-362f-4eff-be4f-cf602cfaa1a0",
	"name": "preprod",
	"values": [
		{
			"key": "env",
			"value": "preprod",
			"enabled": true
		},
		{
			"key": "url",
			"value": "142.93.219.181",
			"enabled": true
		},
		{
			"key": "email",
			"value": "jatinvsharma@gmail.com",
			"enabled": true
		},
		{
			"key": "pwd",
			"value": "123123123",
			"enabled": true
		}
	],
	"_postman_variable_scope": "environment",
	"_postman_exported_at": "2019-08-05T16:31:30.257Z",
	"_postman_exported_using": "Postman/7.3.5"
}